{
  "consumer": {
    "name": "Frontend"
  },
  "provider": {
    "name": "ClientsService"
  },
  "interactions": [
    {
      "description": "a request for all clients",
      "providerState": "i have a list of clients",
      "request": {
        "method": "GET",
        "path": "/clients",
        "headers": {
          "Accept": "application/json, text/plain, */*"
        }
      },
      "response": {
        "status": 200,
        "headers": {
          "Content-Type": "application/json; charset=utf-8"
        },
        "body": [
          {
            "firstName": "Lisa",
            "lastName": "Simpson",
            "age": 8,
            "id": 1
          },
          {
            "firstName": "Wonder",
            "lastName": "Woman",
            "age": 30,
            "id": 2
          },
          {
            "firstName": "Homer",
            "lastName": "Simpson",
            "age": 39,
            "id": 3
          }
        ]
      }
    },
    {
      "description": "a request to create client with firstname and lastname",
      "providerState": "i create a new client",
      "request": {
        "method": "POST",
        "path": "/clients",
        "headers": {
          "Content-Type": "application/json;charset=utf-8"
        },
        "body": {
          "firstName": "Bat",
          "lastName": "Man",
          "age": 35
        }
      },
      "response": {
        "status": 200,
        "headers": {
        },
        "body": {
          "firstName": "Bat",
          "lastName": "Man",
          "age": 35,
          "id": 3
        }
      }
    }
  ],
  "metadata": {
    "pactSpecification": {
      "version": "2.0.0"
    }
  }
}